<?xml version="1.0" encoding="utf-8"?>
<!-- Generator: Adobe Illustrator 18.1.1, SVG Export Plug-In . SVG Version: 6.00 Build 0)  -->
<svg version="1.1" id="Layer_1" xmlns="http://www.w3.org/2000/svg" xmlns:xlink="http://www.w3.org/1999/xlink" x="0px" y="0px"
	 viewBox="0 0 202 70" enable-background="new 0 0 202 70" xml:space="preserve">
<rect x="0" y="-0.6" fill="#E75300" width="202.1" height="70.6"/>
<rect x="8.1" y="7.4" fill="none" stroke="#FFFFFF" stroke-width="0.5" stroke-miterlimit="10" width="185.9" height="54.6"/>
<g>
	
		<rect x="99" y="60" transform="matrix(0.7072 0.707 -0.707 0.7072 73.4255 -53.2824)" fill="#FFFFFF" stroke="#E75300" stroke-width="0.5" stroke-miterlimit="10" width="4.1" height="4.1"/>
</g>
</svg>
