<?xml version="1.0" encoding="utf-8"?>
<!-- Generator: Adobe Illustrator 18.1.1, SVG Export Plug-In . SVG Version: 6.00 Build 0)  -->
<svg version="1.1" id="Layer_1" xmlns="http://www.w3.org/2000/svg" xmlns:xlink="http://www.w3.org/1999/xlink" x="0px" y="0px"
	 viewBox="0 0 296 86" enable-background="new 0 0 296 86" xml:space="preserve">
<rect x="1.1" y="0.8" fill="#FFFFFF" width="295.9" height="85.5"/>
<rect x="11.7" y="3.8" fill="none" stroke="#E75300" stroke-width="0.5" stroke-miterlimit="10" width="274.6" height="72.1"/>
<g>
	
		<rect x="166" y="73.2" transform="matrix(0.7071 0.7071 -0.7071 0.7071 103.1136 -97.0731)" fill="#C1C0C0" stroke="#FFFFFF" stroke-width="0.5" stroke-miterlimit="10" width="5.6" height="5.6"/>
	
		<rect x="146.2" y="73.2" transform="matrix(0.707 0.7072 -0.7072 0.707 97.3524 -83.1261)" fill="#C1C0C0" stroke="#FFFFFF" stroke-width="0.5" stroke-miterlimit="10" width="5.6" height="5.6"/>
	
		<rect x="185.7" y="73.2" transform="matrix(0.7071 0.7071 -0.7071 0.7071 108.8931 -111.026)" fill="#C1C0C0" stroke="#FFFFFF" stroke-width="0.5" stroke-miterlimit="10" width="5.6" height="5.6"/>
	
		<rect x="126.5" y="73.2" transform="matrix(0.707 0.7072 -0.7072 0.707 91.5713 -69.1716)" fill="#E75300" stroke="#FFFFFF" stroke-width="0.5" stroke-miterlimit="10" width="5.6" height="5.6"/>
	
		<rect x="106.8" y="73.2" transform="matrix(0.707 0.7072 -0.7072 0.707 85.7918 -55.2173)" fill="#C1C0C0" stroke="#FFFFFF" stroke-width="0.5" stroke-miterlimit="10" width="5.6" height="5.6"/>
</g>
</svg>
