<?xml version="1.0" encoding="utf-8"?>
<!-- Generator: Adobe Illustrator 18.1.1, SVG Export Plug-In . SVG Version: 6.00 Build 0)  -->
<svg version="1.1" id="Layer_1" xmlns="http://www.w3.org/2000/svg" xmlns:xlink="http://www.w3.org/1999/xlink" x="0px" y="0px"
	 viewBox="0 0 53 7" enable-background="new 0 0 53 7" xml:space="preserve">
<g>
	
		<rect x="24.4" y="1.3" transform="matrix(0.7073 0.7069 -0.7069 0.7073 10.2672 -17.8002)" fill="#010101" width="4.5" height="4.5"/>
	<polygon fill="#010101" points="29.2,3 53,3.5 29.2,4 	"/>
	<polygon fill="#010101" points="24.6,4 0,3.5 24.6,3 	"/>
</g>
</svg>
