<?xml version="1.0" encoding="utf-8"?>
<!-- Generator: Adobe Illustrator 18.1.1, SVG Export Plug-In . SVG Version: 6.00 Build 0)  -->
<svg version="1.1" id="Layer_1" xmlns="http://www.w3.org/2000/svg" xmlns:xlink="http://www.w3.org/1999/xlink" x="0px" y="0px"
	 viewBox="0 0 311 75" enable-background="new 0 0 311 75" xml:space="preserve">
<g>
	<g>
		<polygon fill="#FFFFFF" points="153.6,8.4 152.1,15 144.4,15 127.5,0.9 127.5,32.1 144.4,18 152.1,18 153.6,24.6 155.1,24.6 
			155.1,8.4 		"/>
		<polygon fill="#FFFFFF" points="158.4,24.6 160,18 167.6,18 184.5,32.1 184.5,0.9 167.6,15 160,15 158.4,8.4 156.9,8.4 
			156.9,24.6 		"/>
		<path fill="#FFFFFF" d="M225.7,16.8l-33.8-0.8l0,0c-0.5,0-0.9,0.4-0.9,0.8c0,0.5,0.4,0.8,0.9,0.8v0L225.7,16.8z"/>
		<path fill="#FFFFFF" d="M86.3,16.8l33.8-0.8l0,0c0.5,0,0.9,0.4,0.9,0.8c0,0.5-0.4,0.8-0.9,0.8v0L86.3,16.8z"/>
	</g>
	<polygon fill="#FFFFFF" points="1,55 6.5,55 9,68 12.1,55.5 16.8,55.5 20,68 22.5,55 27.8,55 22.9,74.4 17.5,74.4 14.4,62.1 
		11.3,74.4 5.8,74.4 	"/>
	<path fill="#FFFFFF" d="M48.2,74.8c-1.5,0-2.8-0.3-4.1-0.8c-1.2-0.5-2.3-1.2-3.2-2.1c-0.9-0.9-1.6-2-2.1-3.2
		c-0.5-1.2-0.8-2.6-0.8-4.1c0-1.5,0.3-2.8,0.8-4.1c0.5-1.2,1.2-2.3,2.1-3.2c0.9-0.9,2-1.6,3.2-2.1c1.2-0.5,2.6-0.8,4.1-0.8
		c1.5,0,2.8,0.3,4.1,0.8c1.3,0.5,2.3,1.2,3.2,2.1c0.9,0.9,1.6,2,2.1,3.2c0.5,1.2,0.8,2.6,0.8,4.1c0,1.5-0.3,2.8-0.8,4.1
		c-0.5,1.2-1.2,2.3-2.1,3.2c-0.9,0.9-2,1.6-3.2,2.1C51.1,74.6,49.7,74.8,48.2,74.8 M48.2,70c0.8,0,1.4-0.1,2-0.4
		c0.6-0.3,1.1-0.7,1.5-1.1c0.4-0.5,0.7-1.1,0.9-1.7c0.2-0.7,0.3-1.4,0.3-2.1c0-0.7-0.1-1.4-0.3-2.1c-0.2-0.7-0.5-1.2-0.9-1.7
		c-0.4-0.5-0.9-0.9-1.5-1.1c-0.6-0.3-1.3-0.4-2-0.4c-0.8,0-1.4,0.1-2,0.4c-0.6,0.3-1.1,0.7-1.5,1.1c-0.4,0.5-0.7,1.1-0.9,1.7
		c-0.2,0.7-0.3,1.4-0.3,2.1c0,0.7,0.1,1.4,0.3,2.1c0.2,0.7,0.5,1.2,0.9,1.7c0.4,0.5,0.9,0.9,1.5,1.1C46.8,69.9,47.5,70,48.2,70"/>
	<path fill="#FFFFFF" d="M70.8,55h8.1c1.1,0,2,0.1,2.9,0.4c0.9,0.3,1.6,0.7,2.2,1.2c0.6,0.5,1.1,1.2,1.4,2c0.3,0.8,0.5,1.7,0.5,2.8
		c0,1.3-0.3,2.4-0.9,3.3c-0.6,0.9-1.3,1.7-2.3,2.2l4.2,7.4h-5.6L78,67.8h-2.2v6.6h-5.1V55z M78.4,63.8c0.7,0,1.2-0.2,1.7-0.6
		c0.4-0.4,0.6-1,0.6-1.7c0-0.7-0.2-1.3-0.6-1.7c-0.4-0.4-1-0.6-1.7-0.6h-2.5v4.7H78.4z"/>
	<polygon fill="#FFFFFF" points="98.8,55 104,55 104,69.9 113.1,69.9 113.1,74.4 98.8,74.4 	"/>
	<path fill="#FFFFFF" d="M123.9,55h7.5c1.5,0,2.9,0.2,4.2,0.6c1.3,0.4,2.4,1,3.3,1.8c0.9,0.8,1.7,1.8,2.2,3c0.5,1.2,0.8,2.7,0.8,4.4
		c0,1.6-0.3,3-0.8,4.2c-0.5,1.2-1.3,2.2-2.2,3c-0.9,0.8-2.1,1.4-3.4,1.8c-1.3,0.4-2.7,0.6-4.2,0.6h-7.5V55z M131.2,69.9
		c1.7,0,3-0.5,4-1.4c0.9-1,1.4-2.2,1.4-3.7c0-0.8-0.1-1.5-0.3-2.1c-0.2-0.6-0.5-1.2-1-1.6c-0.4-0.5-1-0.8-1.7-1.1
		c-0.7-0.3-1.5-0.4-2.4-0.4h-2.1v10.3H131.2z"/>
	<path fill="#FFFFFF" d="M181.9,70.8c-2.2,2.7-5.1,4.1-8.7,4.1c-1.5,0-2.9-0.2-4.1-0.8c-1.3-0.5-2.3-1.2-3.2-2.1
		c-0.9-0.9-1.6-2-2.1-3.2c-0.5-1.2-0.7-2.6-0.7-4.1c0-1.5,0.2-2.8,0.7-4.1c0.5-1.2,1.2-2.3,2.1-3.3c0.9-0.9,2-1.6,3.2-2.1
		c1.3-0.5,2.6-0.8,4.1-0.8c1.7,0,3.3,0.3,4.7,0.8c1.4,0.6,2.7,1.5,3.7,2.9l-3.4,3.4c-0.5-0.7-1.2-1.3-2-1.8
		c-0.8-0.4-1.6-0.7-2.6-0.7c-0.8,0-1.6,0.1-2.2,0.4c-0.6,0.3-1.2,0.6-1.6,1.1c-0.4,0.5-0.8,1-1,1.7c-0.2,0.6-0.4,1.3-0.4,2.1
		c0,0.8,0.1,1.5,0.4,2.1c0.2,0.7,0.6,1.2,1,1.7c0.5,0.5,1,0.9,1.6,1.1c0.6,0.3,1.4,0.4,2.1,0.4c1.1,0,2.1-0.2,2.8-0.6
		c0.7-0.4,1.4-1,2.1-1.9L181.9,70.8z"/>
	<polygon fill="#FFFFFF" points="193.4,55 198.6,55 198.6,69.9 207.7,69.9 207.7,74.4 193.4,74.4 	"/>
	<path fill="#FFFFFF" d="M224.9,55h6l6.9,19.4h-5.6l-1.3-4h-6.6l-1.3,4h-5.4L224.9,55z M229.9,66.6l-2.2-7.1l-2.3,7.1H229.9z"/>
	<path fill="#FFFFFF" d="M250.5,68.3c0.5,0.5,1.3,1,2.1,1.5c0.9,0.4,1.9,0.7,2.9,0.7c0.3,0,0.5,0,0.8-0.1c0.3,0,0.5-0.1,0.7-0.2
		c0.2-0.1,0.4-0.3,0.5-0.5c0.1-0.2,0.2-0.4,0.2-0.8c0-0.5-0.3-0.9-0.8-1.2c-0.5-0.3-1.3-0.7-2.3-1l-1.1-0.3
		c-0.6-0.2-1.2-0.4-1.8-0.8c-0.6-0.3-1.2-0.7-1.7-1.1c-0.5-0.4-0.9-0.9-1.2-1.5c-0.3-0.6-0.5-1.3-0.5-2.1c0-0.9,0.2-1.7,0.5-2.5
		c0.3-0.8,0.8-1.4,1.5-2c0.6-0.6,1.4-1,2.4-1.3c0.9-0.3,2-0.5,3.3-0.5c1,0,1.8,0.1,2.6,0.3c0.8,0.2,1.5,0.4,2.1,0.6
		c0.6,0.3,1.1,0.5,1.5,0.8c0.4,0.3,0.7,0.6,0.9,0.8l-2.6,3.3c-0.7-0.5-1.4-0.9-2.1-1.2c-0.7-0.3-1.5-0.5-2.3-0.5
		c-0.3,0-0.5,0-0.8,0.1c-0.3,0.1-0.5,0.1-0.7,0.3c-0.2,0.1-0.4,0.3-0.5,0.5c-0.1,0.2-0.2,0.4-0.2,0.7c0,0.3,0.1,0.5,0.2,0.8
		c0.1,0.2,0.3,0.4,0.6,0.6c0.3,0.2,0.6,0.3,0.9,0.4c0.4,0.1,0.7,0.3,1.2,0.4l0.9,0.3c0.7,0.2,1.3,0.5,2,0.7c0.7,0.3,1.3,0.7,1.9,1.1
		c0.5,0.5,1,1.1,1.4,1.8c0.4,0.7,0.5,1.6,0.5,2.6c0,0.9-0.2,1.7-0.6,2.5c-0.4,0.8-1,1.4-1.7,1.9c-0.7,0.5-1.6,1-2.5,1.3
		c-1,0.3-2,0.5-3.1,0.5c-2,0-3.6-0.3-4.9-0.8c-1.3-0.5-2.4-1.2-3.4-2.1L250.5,68.3z"/>
	<path fill="#FFFFFF" d="M277.3,68.3c0.6,0.5,1.3,1,2.1,1.5c0.9,0.4,1.9,0.7,2.9,0.7c0.3,0,0.5,0,0.8-0.1c0.3,0,0.5-0.1,0.7-0.2
		c0.2-0.1,0.4-0.3,0.5-0.5c0.1-0.2,0.2-0.4,0.2-0.8c0-0.5-0.3-0.9-0.8-1.2c-0.5-0.3-1.3-0.7-2.3-1l-1.1-0.3
		c-0.6-0.2-1.2-0.4-1.8-0.8c-0.6-0.3-1.2-0.7-1.7-1.1c-0.5-0.4-0.9-0.9-1.2-1.5c-0.3-0.6-0.5-1.3-0.5-2.1c0-0.9,0.2-1.7,0.5-2.5
		c0.3-0.8,0.8-1.4,1.5-2c0.6-0.6,1.4-1,2.4-1.3c0.9-0.3,2-0.5,3.3-0.5c1,0,1.8,0.1,2.6,0.3c0.8,0.2,1.5,0.4,2.1,0.6
		c0.6,0.3,1.1,0.5,1.5,0.8c0.4,0.3,0.7,0.6,0.9,0.8l-2.6,3.3c-0.7-0.5-1.4-0.9-2.1-1.2c-0.7-0.3-1.5-0.5-2.3-0.5
		c-0.3,0-0.5,0-0.8,0.1c-0.3,0.1-0.5,0.1-0.7,0.3c-0.2,0.1-0.4,0.3-0.5,0.5c-0.1,0.2-0.2,0.4-0.2,0.7c0,0.3,0.1,0.5,0.2,0.8
		c0.1,0.2,0.3,0.4,0.6,0.6c0.3,0.2,0.6,0.3,0.9,0.4c0.4,0.1,0.7,0.3,1.2,0.4l0.9,0.3c0.7,0.2,1.3,0.5,2,0.7c0.7,0.3,1.3,0.7,1.9,1.1
		c0.5,0.5,1,1.1,1.4,1.8c0.4,0.7,0.5,1.6,0.5,2.6c0,0.9-0.2,1.7-0.6,2.5c-0.4,0.8-1,1.4-1.7,1.9c-0.7,0.5-1.6,1-2.5,1.3
		c-1,0.3-2,0.5-3.1,0.5c-2,0-3.6-0.3-4.9-0.8c-1.3-0.5-2.4-1.2-3.4-2.1L277.3,68.3z"/>
	<path fill="#FFFFFF" d="M306.3,64.5c-0.7,0-1.3-0.1-1.9-0.4c-0.6-0.2-1.1-0.6-1.5-1c-0.4-0.4-0.8-0.9-1-1.5
		c-0.2-0.6-0.4-1.2-0.4-1.8c0-0.7,0.1-1.3,0.4-1.8s0.6-1.1,1-1.5c0.4-0.4,0.9-0.8,1.5-1c0.6-0.2,1.2-0.4,1.9-0.4
		c0.7,0,1.3,0.1,1.9,0.4c0.6,0.2,1.1,0.6,1.5,1c0.4,0.4,0.8,0.9,1,1.5c0.2,0.6,0.4,1.2,0.4,1.8c0,0.7-0.1,1.3-0.4,1.8
		c-0.2,0.6-0.6,1.1-1,1.5c-0.4,0.4-0.9,0.8-1.5,1C307.5,64.4,306.9,64.5,306.3,64.5 M306.3,63.4c0.5,0,1-0.1,1.4-0.3
		c0.4-0.2,0.8-0.4,1.1-0.8c0.3-0.3,0.6-0.7,0.7-1.1c0.2-0.4,0.3-0.9,0.3-1.4c0-0.5-0.1-1-0.3-1.4c-0.2-0.4-0.4-0.8-0.7-1.1
		c-0.3-0.3-0.7-0.6-1.1-0.8c-0.4-0.2-0.9-0.3-1.4-0.3c-0.5,0-1,0.1-1.4,0.3c-0.4,0.2-0.8,0.4-1.1,0.8c-0.3,0.3-0.6,0.7-0.7,1.1
		c-0.2,0.4-0.3,0.9-0.3,1.4c0,0.5,0.1,1,0.3,1.4c0.2,0.4,0.4,0.8,0.7,1.1c0.3,0.3,0.7,0.6,1.1,0.8C305.3,63.3,305.8,63.4,306.3,63.4
		 M304.5,57.4h2c0.3,0,0.6,0,0.8,0.1c0.2,0.1,0.4,0.2,0.5,0.3c0.1,0.1,0.2,0.3,0.3,0.5c0.1,0.2,0.1,0.3,0.1,0.5
		c0,0.3-0.1,0.5-0.2,0.8c-0.1,0.2-0.4,0.4-0.6,0.6l1.1,1.9h-1.3l-1-1.8h-0.6v1.8h-1.1V57.4z M306.4,59.4c0.2,0,0.4-0.1,0.5-0.2
		c0.1-0.1,0.1-0.2,0.1-0.4c0-0.2-0.1-0.3-0.2-0.4c-0.1-0.1-0.3-0.1-0.5-0.1h-0.8v1.1H306.4z"/>
</g>
</svg>
